ERROR SPPH1011 @ (12,7): Invalid continue statement.
ERROR SPPH1011 @ (13,7): Invalid continue statement.
ERROR SPPH1011 @ (19,7): Invalid continue statement.
ERROR SPPH1011 @ (20,7): Invalid continue statement.
------------------ Parsed Data Dump ------------------
Module [Main.ModuleStatements.StmtList]
 Definition [Main.Def] start: Function  [Main.Function]
  type: FunctionType [Main.Function]
   argTypes: NULL
   retType: Identifier: Void [Subject.Parameter]
  body: Block [Main.BlockStatements.StmtList]
   Definition [Main.Def] i: ParamPass [] [Expression.ParamPassExp]
    operand: Identifier: Int [Subject.Parameter]
    param: IntegerLiteral: 32 [Subject.Literal]
   WhileStatement [Main.While]
    condition: ComparisonOperator > [Expression.ComparisonExp]
     first: Identifier: i [Subject.Parameter]
     second: IntegerLiteral: 0 [Subject.Literal]
    body: Block [Main.BlockStatements.StmtList]
     ContinueStatement [Main.Continue]
      steps: NULL
     ContinueStatement [Main.Continue]
      steps: IntegerLiteral: 2 [Subject.Literal]
   ForStatement [Main.For]
    initializer: AssignmentOperator = [Expression.AssignmentExp]
     first: Identifier: i [Subject.Parameter]
     second: IntegerLiteral: 0 [Subject.Literal]
    condition: ComparisonOperator < [Expression.ComparisonExp]
     first: Identifier: i [Subject.Parameter]
     second: IntegerLiteral: 5 [Subject.Literal]
    updater: PrefixOperator ++ [Expression.UnaryExp]
     operand: Identifier: i [Subject.Parameter]
    body: Block [Main.BlockStatements.StmtList]
     ContinueStatement [Main.Continue]
      steps: NULL
     ContinueStatement [Main.Continue]
      steps: IntegerLiteral: 2 [Subject.Literal]
------------------------------------------------------
