جد_محرف '-': - 456 - 789
جد_محرف '-'، 4: 0
جد_محرف '-'، 5: 1
جد_آخر_محرف '-': - 789
جد_محارف "124": 124 - 125
قارن "123" مع "123": 0
قارن "123" مع "1234": -52
قارن 3 "123" مع "1234": 0
انسخ: -- بسم الله
انسخ 2: ++ بسم الله
سلسل: ++ بسم الله، الحمد لله
سلسل 2: ++ بسم الله، الحمد لله!!
جد_طول: 40
