ERROR SPPG1019 @ (41,3): Use statement not pointing to a valid target.
ERROR SPPG1019 @ (47,5): Use statement not pointing to a valid target.
ERROR SPPA1007 @ (49,5): Unknown symbol.
ERROR SPPA1007 @ (52,5): Unknown symbol.
ERROR SPPA1007 @ (59,5): Unknown symbol.
Build Failed...
--------------------- Partial LLVM IR ----------------------
; ModuleID = 'AlususProgram'
target datalayout = "E-p:64:64:64-S0-i1:8:8-i8:8:8-i16:16:16-i32:32:32-i64:32:64-f16:16:16-f32:32:32-f64:64:64-f128:128:128-v64:64:64-v128:128:128-a0:0:64"

@__anonymous0 = private constant [2 x i8] c"!\00", align 1
@__anonymous1 = private constant [5 x i8] c"Use \00", align 1
@__anonymous2 = private constant [10 x i8] c"Statement\00", align 1
@__anonymous3 = private constant [2 x i8] c"\0A\00", align 1
@__anonymous4 = private constant [15 x i8] c"Use Statement\0A\00", align 1
@__anonymous5 = private constant [15 x i8] c"Use Statement\0A\00", align 1

declare i64 @printf(i8*, ...)

define void @"Std.Inner.printExclamation()"() {
__block0:
  %0 = call i64 (i8*, ...)* @printf(i8* getelementptr inbounds ([2 x i8]* @__anonymous0, i32 0, i32 0))
  ret void
}

define void @"Other1.printUse()"() {
__block1:
  %0 = call i64 (i8*, ...)* @printf(i8* getelementptr inbounds ([5 x i8]* @__anonymous1, i32 0, i32 0))
  ret void
}

define void @"Other2.printStatement()"() {
__block2:
  %0 = call i64 (i8*, ...)* @printf(i8* getelementptr inbounds ([10 x i8]* @__anonymous2, i32 0, i32 0))
  ret void
}

define void @"Main.Other3.printNewLine()"() {
__block3:
  %0 = call i64 (i8*, ...)* @printf(i8* getelementptr inbounds ([2 x i8]* @__anonymous3, i32 0, i32 0))
  ret void
}

define void @"Main.start()=>(Void)"() {
__block4:
  call void @"Other1.printUse()"()
  call void @"Other2.printStatement()"()
  call void @"Main.Other3.printNewLine()"()
  ret void
}

define void @"Main.start2()"() {
__block5:
  call void @"Std.Inner.printExclamation()"()
  ret void
}
------------------------------------------------------------
